<svg version="1.1" xmlns="http://www.w3.org/2000/svg" xmlns:xlink="http://www.w3.org/1999/xlink" width="15" height="15" viewBox="-7.5 7.5 15 15">
	<path opacity="0.3" fill="#FFF" stroke="#000" d="M-0.001,9.094c-3.266,0-5.913,2.646-5.913,5.908c0,3.266,2.646,5.913,5.913,5.913s5.922-2.647,5.922-5.913C5.921,11.738,3.266,9.094-0.001,9.094z"/>
</svg>
